8	16	32	64	128	256	512	1024	2048
3.487125e-06	4.166e-06	4.52703125e-06	5.514e-06	5.994890625e-06	7.25578515625e-06	7.8473125e-06	8.23170117187e-06	9.64556933594e-06
2.358375e-06	2.5945625e-06	2.881375e-06	3.384125e-06	3.6433125e-06	4.18733203125e-06	4.5980078125e-06	4.83520800781e-06	5.59388427734e-06
