\relax 
\@writefile{toc}{\contentsline {section}{\numberline {1}}{1}}
\@writefile{toc}{\contentsline {section}{\numberline {2}}{1}}
\@writefile{lol}{\contentsline {lstlisting}{language=C}{2}}
\@writefile{toc}{\contentsline {section}{\numberline {3}}{2}}
\@writefile{toc}{\contentsline {section}{\numberline {4}}{4}}
\@writefile{toc}{\contentsline {section}{\numberline {5}}{5}}
