\relax 
\@writefile{toc}{\contentsline {section}{\numberline {1}}{1}}
\@writefile{toc}{\contentsline {section}{\numberline {2}}{1}}
\@writefile{toc}{\contentsline {section}{\numberline {3}}{2}}
\@writefile{toc}{\contentsline {section}{\numberline {4}}{2}}
\@writefile{lof}{\contentsline {figure}{\numberline {1}{\ignorespaces XOR circuit.}}{4}}
\newlabel{fig:xor}{{1}{4}}
\@writefile{lof}{\contentsline {figure}{\numberline {2}{\ignorespaces NOT gate using NOR}}{4}}
\newlabel{fig:notnor}{{2}{4}}
\@writefile{lof}{\contentsline {figure}{\numberline {3}{\ignorespaces OR gate using NOR}}{4}}
\newlabel{fig:ornor}{{3}{4}}
\@writefile{lof}{\contentsline {figure}{\numberline {4}{\ignorespaces AND gate using NOR}}{4}}
\newlabel{fig:andnor}{{4}{4}}
\@writefile{lof}{\contentsline {figure}{\numberline {5}{\ignorespaces ODD circuit}}{5}}
\newlabel{fig:odd}{{5}{5}}
